Part 5
…
```r
# save as new data frame penguins_f
penguins_f <- penguins %>%
  filter(sex=="female") %>%
  mutate(bill_ratio = bill_length_mm/bill_depth_mm)

# change the ordering of penguins_f and re-save it
penguins_f <- penguins_f %>% arrange(bill_ratio)

# print out that data frame, but don't save it
penguins_f %>% select(sex, contains("bill")) 
```

```
## # A tibble: 165 × 4
##    sex    bill_length_mm bill_depth_mm bill_ratio
##    <fct>           <dbl>         <dbl>      <dbl>
##  1 female           33.5          19         1.76
##  2 female           35.3          18.9       1.87
##  3 female           34.4          18.4       1.87
##  4 female           35.9          19.2       1.87
##  5 female           36.7          19.3       1.90
##  6 female           34.5          18.1       1.91
##  7 female           39.6          20.7       1.91
##  8 female           36            18.5       1.95
##  9 female           37.6          19.3       1.95
## 10 female           36.7          18.8       1.95
## # … with 155 more rows
## # ℹ Use `print(n = ...)` to see more rows
```
…
Print it now (but really, don't do this, there's no point):

```r
glimpse_out
```

```
## # A tibble: 165 × 9
##    species island    bill_length_mm bill_d…¹ flipp…² body_…³ sex    year bill_…⁴
##    <fct>   <fct>              <dbl>    <dbl>   <int>   <int> <fct> <int>   <dbl>
##  1 Adelie  Torgersen           33.5     19       190    3600 fema…  2008    1.76
##  2 Adelie  Biscoe              35.3     18.9     187    3800 fema…  2007    1.87
##  3 Adelie  Torgersen           34.4     18.4     184    3325 fema…  2007    1.87
##  4 Adelie  Biscoe              35.9     19.2     189    3800 fema…  2007    1.87
##  5 Adelie  Torgersen           36.7     19.3     193    3450 fema…  2007    1.90
##  6 Adelie  Biscoe              34.5     18.1     187    2900 fema…  2008    1.91
##  7 Adelie  Biscoe              39.6     20.7     191    3900 fema…  2009    1.91
##  8 Adelie  Dream               36       18.5     186    3100 fema…  2007    1.95
##  9 Adelie  Dream               37.6     19.3     181    3300 fema…  2007    1.95
## 10 Adelie  Torgersen           36.7     18.8     187    3800 fema…  2008    1.95
## # … with 155 more rows, and abbreviated variable names ¹​bill_depth_mm,
## #   ²​flipper_length_mm, ³​body_mass_g, ⁴​bill_ratio
## # ℹ Use `print(n = ...)` to see more rows
```
…
