(Class 9) Part 7 continued and Part 8 . Intro to stats/`broom`/More Purrr | R Programming 2023
…
across() can only be used as a helper function inside mutate or summarize applied to a data frame/tibble

Also:

inside across() we need to use very specific syntax which is called tidyselect.

Think of across() and select() as friends, because they use the same language to select columns.

But across() is used more like map() in that it takes a “what” argument (.cols = tidy select columns for across, .x = a list or vector for map) and “function” argument (.fns= for across because multiple functions can be supplied, .f= for map because only one function can be applied)

library(palmerpenguins)

penguins %>% select(where(is.numeric))

## # A tibble: 344 × 5
##    bill_length_mm bill_depth_mm flipper_length_mm body_mass_g  year
##             <dbl>         <dbl>             <int>       <int> <int>
##  1           39.1          18.7               181        3750  2007
##  2           39.5          17.4               186        3800  2007
##  3           40.3          18                 195        3250  2007
##  4           NA            NA                  NA          NA  2007
##  5           36.7          19.3               193        3450  2007
##  6           39.3          20.6               190        3650  2007
##  7           38.9          17.8               181        3625  2007
##  8           39.2          19.6               195        4675  2007
##  9           34.1          18.1               193        3475  2007
## 10           42            20.2               190        4250  2007
## # … with 334 more rows

# penguins %>% across(where(is.numeric))
# Error in `across()`:
# ! Must only be used inside data-masking verbs like `mutate()`,
#   `filter()`, and `group_by()`.

# mutate requires a function that returns a vector the same length as the original vector
penguins %>% mutate(across(.cols = where(is.numeric), .f = as.character))

## # A tibble: 344 × 8
##    species island    bill_length_mm bill_depth_mm flipper_…¹ body_…² sex   year 
##    <fct>   <fct>     <chr>          <chr>         <chr>      <chr>   <fct> <chr>
##  1 Adelie  Torgersen 39.1           18.7          181        3750    male  2007 
##  2 Adelie  Torgersen 39.5           17.4          186        3800    fema… 2007 
##  3 Adelie  Torgersen 40.3           18            195        3250    fema… 2007 
##  4 Adelie  Torgersen <NA>           <NA>          <NA>       <NA>    <NA>  2007 
##  5 Adelie  Torgersen 36.7           19.3          193        3450    fema… 2007 
##  6 Adelie  Torgersen 39.3           20.6          190        3650    male  2007 
##  7 Adelie  Torgersen 38.9           17.8          181        3625    fema… 2007 
##  8 Adelie  Torgersen 39.2           19.6          195        4675    male  2007 
##  9 Adelie  Torgersen 34.1           18.1          193        3475    <NA>  2007 
## 10 Adelie  Torgersen 42             20.2          190        4250    <NA>  2007 
## # … with 334 more rows, and abbreviated variable names ¹​flipper_length_mm,
## #   ²​body_mass_g

# this works but it shouldn't and is "deprecated" in dplyr 1.1.0
# summarize SHOULD return a vector of length 1
penguins %>% summarize(across(.cols = where(is.numeric), .f = as.character))

## Warning: Returning more (or less) than 1 row per `summarise()` group was deprecated in
## dplyr 1.1.0.
## ℹ Please use `reframe()` instead.
## ℹ When switching from `summarise()` to `reframe()`, remember that `reframe()`
##   always returns an ungrouped data frame and adjust accordingly.

## # A tibble: 344 × 5
##    bill_length_mm bill_depth_mm flipper_length_mm body_mass_g year 
##    <chr>          <chr>         <chr>             <chr>       <chr>
##  1 39.1           18.7          181               3750        2007 
##  2 39.5           17.4          186               3800        2007 
##  3 40.3           18            195               3250        2007 
##  4 <NA>           <NA>          <NA>              <NA>        2007 
##  5 36.7           19.3          193               3450        2007 
##  6 39.3           20.6          190               3650        2007 
##  7 38.9           17.8          181               3625        2007 
##  8 39.2           19.6          195               4675        2007 
##  9 34.1           18.1          193               3475        2007 
## 10 42             20.2          190               4250        2007 
## # … with 334 more rows
…
