…
mtcars_tib <- as_tibble(mtcars)
class(mtcars_tib)

## [1] "tbl_df"     "tbl"        "data.frame"

mtcars_tib

## # A tibble: 32 × 11
##      mpg   cyl  disp    hp  drat    wt  qsec    vs    am  gear  carb
##    <dbl> <dbl> <dbl> <dbl> <dbl> <dbl> <dbl> <dbl> <dbl> <dbl> <dbl>
##  1  21       6  160    110  3.9   2.62  16.5     0     1     4     4
##  2  21       6  160    110  3.9   2.88  17.0     0     1     4     4
##  3  22.8     4  108     93  3.85  2.32  18.6     1     1     4     1
##  4  21.4     6  258    110  3.08  3.22  19.4     1     0     3     1
##  5  18.7     8  360    175  3.15  3.44  17.0     0     0     3     2
##  6  18.1     6  225    105  2.76  3.46  20.2     1     0     3     1
##  7  14.3     8  360    245  3.21  3.57  15.8     0     0     3     4
##  8  24.4     4  147.    62  3.69  3.19  20       1     0     4     2
##  9  22.8     4  141.    95  3.92  3.15  22.9     1     0     4     2
## 10  19.2     6  168.   123  3.92  3.44  18.3     1     0     4     4
## # … with 22 more rows
## # ℹ Use `print(n = ...)` to see more rows

Another interesting difference is that tibbles don’t have row names, but a lot of built in data.frames in R do. But rownames are hard to get out. So, when you make a tibble of a data.frame you can tell the function to use the rownames as a column:

mtcars_tib <- as_tibble(mtcars, rownames = "car")
mtcars_tib

## # A tibble: 32 × 12
##    car           mpg   cyl  disp    hp  drat    wt  qsec    vs    am  gear  carb
##    <chr>       <dbl> <dbl> <dbl> <dbl> <dbl> <dbl> <dbl> <dbl> <dbl> <dbl> <dbl>
##  1 Mazda RX4    21       6  160    110  3.9   2.62  16.5     0     1     4     4
##  2 Mazda RX4 …  21       6  160    110  3.9   2.88  17.0     0     1     4     4
##  3 Datsun 710   22.8     4  108     93  3.85  2.32  18.6     1     1     4     1
##  4 Hornet 4 D…  21.4     6  258    110  3.08  3.22  19.4     1     0     3     1
##  5 Hornet Spo…  18.7     8  360    175  3.15  3.44  17.0     0     0     3     2
##  6 Valiant      18.1     6  225    105  2.76  3.46  20.2     1     0     3     1
##  7 Duster 360   14.3     8  360    245  3.21  3.57  15.8     0     0     3     4
##  8 Merc 240D    24.4     4  147.    62  3.69  3.19  20       1     0     4     2
##  9 Merc 230     22.8     4  141.    95  3.92  3.15  22.9     1     0     4     2
## 10 Merc 280     19.2     6  168.   123  3.92  3.44  18.3     1     0     4     4
## # … with 22 more rows
## # ℹ Use `print(n = ...)` to see more rows
Tibbles also clearly delineate [ and [[: [ always returns another tibble, [[ always returns a vector. No more drop = FALSE!

If we ask for the first column using the [] notation, we receive a numeric vector from a data frame, and a tibble/data.frame from the tibble.

We have not learned the [[]] yet because we have not talked about lists in R, but we will soon. The code below returns the first column as a vector for both a data frame and a tibble.

mtcars[,1]

##  [1] 21.0 21.0 22.8 21.4 18.7 18.1 14.3 24.4 22.8 19.2 17.8 16.4 17.3 15.2 10.4
## [16] 10.4 14.7 32.4 30.4 33.9 21.5 15.5 15.2 13.3 19.2 27.3 26.0 30.4 15.8 19.7
## [31] 15.0 21.4

mtcars_tib[,1]

## # A tibble: 32 × 1
##    car              
##    <chr>            
##  1 Mazda RX4        
##  2 Mazda RX4 Wag    
##  3 Datsun 710       
##  4 Hornet 4 Drive   
##  5 Hornet Sportabout
##  6 Valiant          
##  7 Duster 360       
##  8 Merc 240D        
##  9 Merc 230         
## 10 Merc 280         
## # … with 22 more rows
## # ℹ Use `print(n = ...)` to see more rows
…
