…
Agreed, it’s very confusing, more in class 4!

Could you please clarify about the use of select(one_of) and the count command that was mentioned in dplyr cheatsheet?

These are very different, if you are talking about select() vs count(). One thing to note is that since I recorded that class, one_of() has been superseded/replaced by any_of() and all_of().

First, select() is a function to subset columns.

library(palmerpenguins)

Here we specify the columns we want in the order we want:

penguins %>% select(bill_length_mm, island, species, year)

## # A tibble: 344 × 4
##    bill_length_mm island    species  year
##             <dbl> <fct>     <fct>   <int>
##  1           39.1 Torgersen Adelie   2007
##  2           39.5 Torgersen Adelie   2007
##  3           40.3 Torgersen Adelie   2007
##  4           NA   Torgersen Adelie   2007
##  5           36.7 Torgersen Adelie   2007
##  6           39.3 Torgersen Adelie   2007
##  7           38.9 Torgersen Adelie   2007
##  8           39.2 Torgersen Adelie   2007
##  9           34.1 Torgersen Adelie   2007
## 10           42   Torgersen Adelie   2007
## # … with 334 more rows
## # ℹ Use `print(n = ...)` to see more rows

Here, we pass a vector of character names, both of which work:

penguins %>% select(c("bill_length_mm","island","species","year"))

## # A tibble: 344 × 4
##    bill_length_mm island    species  year
##             <dbl> <fct>     <fct>   <int>
##  1           39.1 Torgersen Adelie   2007
##  2           39.5 Torgersen Adelie   2007
##  3           40.3 Torgersen Adelie   2007
##  4           NA   Torgersen Adelie   2007
##  5           36.7 Torgersen Adelie   2007
##  6           39.3 Torgersen Adelie   2007
##  7           38.9 Torgersen Adelie   2007
##  8           39.2 Torgersen Adelie   2007
##  9           34.1 Torgersen Adelie   2007
## 10           42   Torgersen Adelie   2007
## # … with 334 more rows
## # ℹ Use `print(n = ...)` to see more rows

penguins %>% select(any_of(c("bill_length_mm","island","species","year")))

## # A tibble: 344 × 4
##    bill_length_mm island    species  year
##             <dbl> <fct>     <fct>   <int>
##  1           39.1 Torgersen Adelie   2007
##  2           39.5 Torgersen Adelie   2007
##  3           40.3 Torgersen Adelie   2007
##  4           NA   Torgersen Adelie   2007
##  5           36.7 Torgersen Adelie   2007
##  6           39.3 Torgersen Adelie   2007
##  7           38.9 Torgersen Adelie   2007
##  8           39.2 Torgersen Adelie   2007
##  9           34.1 Torgersen Adelie   2007
## 10           42   Torgersen Adelie   2007
## # … with 334 more rows
## # ℹ Use `print(n = ...)` to see more rows

This might be useful if we have that character vector already saved from some other data work we are doing:

colnames_needed <- c("bill_length_mm","island","species","year")
penguins %>% select(colnames_needed)

## Note: Using an external vector in selections is ambiguous.
## ℹ Use `all_of(colnames_needed)` instead of `colnames_needed` to silence this message.
## ℹ See <https://tidyselect.r-lib.org/reference/faq-external-vector.html>.
## This message is displayed once per session.

## # A tibble: 344 × 4
##    bill_length_mm island    species  year
##             <dbl> <fct>     <fct>   <int>
##  1           39.1 Torgersen Adelie   2007
##  2           39.5 Torgersen Adelie   2007
##  3           40.3 Torgersen Adelie   2007
##  4           NA   Torgersen Adelie   2007
##  5           36.7 Torgersen Adelie   2007
##  6           39.3 Torgersen Adelie   2007
##  7           38.9 Torgersen Adelie   2007
##  8           39.2 Torgersen Adelie   2007
##  9           34.1 Torgersen Adelie   2007
## 10           42   Torgersen Adelie   2007
## # … with 334 more rows
## # ℹ Use `print(n = ...)` to see more rows

But the key about any_of and all_of is what it allows. any_of() allows column names that don’t exist! Using no tidyselect helper or all_of() does not allow this. Which you use depends on what you want to allow to happen.

colnames_needed <- c("bill_length_mm","island","species","year","MISSING")
# penguins %>% select((olnames_needed)) # does not work
penguins %>% select(any_of(colnames_needed)) # works!

## # A tibble: 344 × 4
##    bill_length_mm island    species  year
##             <dbl> <fct>     <fct>   <int>
##  1           39.1 Torgersen Adelie   2007
##  2           39.5 Torgersen Adelie   2007
##  3           40.3 Torgersen Adelie   2007
##  4           NA   Torgersen Adelie   2007
##  5           36.7 Torgersen Adelie   2007
##  6           39.3 Torgersen Adelie   2007
##  7           38.9 Torgersen Adelie   2007
##  8           39.2 Torgersen Adelie   2007
##  9           34.1 Torgersen Adelie   2007
## 10           42   Torgersen Adelie   2007
## # … with 334 more rows
## # ℹ Use `print(n = ...)` to see more rows
…
