…
library(palmerpenguins)

# does not save the new column, just prints result
penguins %>% 
  mutate(newvec = bill_length_mm/bill_depth_mm)

## # A tibble: 344 × 9
##    species island    bill_length_mm bill_de…¹ flipp…² body_…³ sex    year newvec
##    <fct>   <fct>              <dbl>     <dbl>   <int>   <int> <fct> <int>  <dbl>
##  1 Adelie  Torgersen           39.1      18.7     181    3750 male   2007   2.09
##  2 Adelie  Torgersen           39.5      17.4     186    3800 fema…  2007   2.27
##  3 Adelie  Torgersen           40.3      18       195    3250 fema…  2007   2.24
##  4 Adelie  Torgersen           NA        NA        NA      NA <NA>   2007  NA   
##  5 Adelie  Torgersen           36.7      19.3     193    3450 fema…  2007   1.90
##  6 Adelie  Torgersen           39.3      20.6     190    3650 male   2007   1.91
##  7 Adelie  Torgersen           38.9      17.8     181    3625 fema…  2007   2.19
##  8 Adelie  Torgersen           39.2      19.6     195    4675 male   2007   2   
##  9 Adelie  Torgersen           34.1      18.1     193    3475 <NA>   2007   1.88
## 10 Adelie  Torgersen           42        20.2     190    4250 <NA>   2007   2.08
## # … with 334 more rows, and abbreviated variable names ¹​bill_depth_mm,
## #   ²​flipper_length_mm, ³​body_mass_g
## # ℹ Use `print(n = ...)` to see more rows
…
