…
library(palmerpenguins)

penguins %>% mutate(
  across(.cols = c(bill_length_mm, body_mass_g),
         .fns = ~ exp(.x)^3 - .x/10))

## # A tibble: 344 × 8
##    species island    bill_length_mm bill_depth_mm flipper_…¹ body_…² sex    year
##    <fct>   <fct>              <dbl>         <dbl>      <int>   <dbl> <fct> <int>
##  1 Adelie  Torgersen        8.76e50          18.7        181     Inf male   2007
##  2 Adelie  Torgersen        2.91e51          17.4        186     Inf fema…  2007
##  3 Adelie  Torgersen        3.21e52          18          195     Inf fema…  2007
##  4 Adelie  Torgersen       NA                NA           NA      NA <NA>   2007
##  5 Adelie  Torgersen        6.54e47          19.3        193     Inf fema…  2007
##  6 Adelie  Torgersen        1.60e51          20.6        190     Inf male   2007
##  7 Adelie  Torgersen        4.81e50          17.8        181     Inf fema…  2007
##  8 Adelie  Torgersen        1.18e51          19.6        195     Inf male   2007
##  9 Adelie  Torgersen        2.68e44          18.1        193     Inf <NA>   2007
## 10 Adelie  Torgersen        5.26e54          20.2        190     Inf <NA>   2007
## # … with 334 more rows, and abbreviated variable names ¹​flipper_length_mm,
## #   ²​body_mass_g
## # ℹ Use `print(n = ...)` to see more rows
…
