purrr::walk() | R Programming
…
## <list_of<
##   tbl_df<
##     species          : factor<600db>
##     island           : factor<6667f>
##     bill_length_mm   : double
##     bill_depth_mm    : double
##     flipper_length_mm: integer
##     body_mass_g      : integer
##     sex              : factor<9a28d>
##     year             : integer
##   >
## >[3]>
## [[1]]
## # A tibble: 146 x 8
##    species island bill_length_mm bill_depth_mm flipper_length_ body_mass_g
##    <fct>   <fct>           <dbl>         <dbl>            <int>       <int>
##  1 Adelie  Torge           39.1          18.7              181        3750
##  2 Adelie  Torge           39.5          17.4              186        3800
##  3 Adelie  Torge           40.3          18                195        3250
##  4 Adelie  Torge           36.7          19.3              193        3450
##  5 Adelie  Torge           39.3          20.6              190        3650
##  6 Adelie  Torge           38.9          17.8              181        3625
##  7 Adelie  Torge           39.2          19.6              195        4675
##  8 Adelie  Torge           41.1          17.6              182        3200
##  9 Adelie  Torge           38.6          21.2              191        3800
## 10 Adelie  Torge           34.6          21.1              198        4400
## #  with 136 more rows, and 2 more variables: sex <fct>, year <int>
## 
## [[2]]
## # A tibble: 68 x 8
##    species island bill_length_mm bill_depth_mm flipper_length_ body_mass_g
##    <fct>   <fct>           <dbl>         <dbl>            <int>       <int>
##  1 Chinst Dream            46.5          17.9              192        3500
##  2 Chinst Dream            50            19.5              196        3900
##  3 Chinst Dream            51.3          19.2              193        3650
##  4 Chinst Dream            45.4          18.7              188        3525
##  5 Chinst Dream            52.7          19.8              197        3725
##  6 Chinst Dream            45.2          17.8              198        3950
##  7 Chinst Dream            46.1          18.2              178        3250
##  8 Chinst Dream            51.3          18.2              197        3750
##  9 Chinst Dream            46            18.9              195        4150
## 10 Chinst Dream            51.3          19.9              198        3700
## #  with 58 more rows, and 2 more variables: sex <fct>, year <int>
## 
## [[3]]
## # A tibble: 119 x 8
##    species island bill_length_mm bill_depth_mm flipper_length_ body_mass_g
##    <fct>   <fct>           <dbl>         <dbl>            <int>       <int>
##  1 Gentoo  Biscoe           46.1          13.2              211        4500
##  2 Gentoo  Biscoe           50            16.3              230        5700
##  3 Gentoo  Biscoe           48.7          14.1              210        4450
##  4 Gentoo  Biscoe           50            15.2              218        5700
##  5 Gentoo  Biscoe           47.6          14.5              215        5400
##  6 Gentoo  Biscoe           46.5          13.5              210        4550
##  7 Gentoo  Biscoe           45.4          14.6              211        4800
##  8 Gentoo  Biscoe           46.7          15.3              219        5200
##  9 Gentoo  Biscoe           43.3          13.4              209        4400
## 10 Gentoo  Biscoe           46.8          15.4              215        5150
## #  with 109 more rows, and 2 more variables: sex <fct>, year <int>
…
## <list_of<
##   tbl_df<
##     species          : factor<600db>
##     island           : factor<6667f>
##     bill_length_mm   : double
##     bill_depth_mm    : double
##     flipper_length_mm: integer
##     body_mass_g      : integer
##     sex              : factor<9a28d>
##     year             : integer
##   >
## >[3]>
## [[1]]
## # A tibble: 146 x 8
##    species island bill_length_mm bill_depth_mm flipper_length_ body_mass_g
##    <fct>   <fct>           <dbl>         <dbl>            <int>       <int>
##  1 Adelie  Torge           39.1          18.7              181        3750
##  2 Adelie  Torge           39.5          17.4              186        3800
##  3 Adelie  Torge           40.3          18                195        3250
##  4 Adelie  Torge           36.7          19.3              193        3450
##  5 Adelie  Torge           39.3          20.6              190        3650
##  6 Adelie  Torge           38.9          17.8              181        3625
##  7 Adelie  Torge           39.2          19.6              195        4675
##  8 Adelie  Torge           41.1          17.6              182        3200
##  9 Adelie  Torge           38.6          21.2              191        3800
## 10 Adelie  Torge           34.6          21.1              198        4400
## #  with 136 more rows, and 2 more variables: sex <fct>, year <int>
## 
## [[2]]
## # A tibble: 68 x 8
##    species island bill_length_mm bill_depth_mm flipper_length_ body_mass_g
##    <fct>   <fct>           <dbl>         <dbl>            <int>       <int>
##  1 Chinst Dream            46.5          17.9              192        3500
##  2 Chinst Dream            50            19.5              196        3900
##  3 Chinst Dream            51.3          19.2              193        3650
##  4 Chinst Dream            45.4          18.7              188        3525
##  5 Chinst Dream            52.7          19.8              197        3725
##  6 Chinst Dream            45.2          17.8              198        3950
##  7 Chinst Dream            46.1          18.2              178        3250
##  8 Chinst Dream            51.3          18.2              197        3750
##  9 Chinst Dream            46            18.9              195        4150
## 10 Chinst Dream            51.3          19.9              198        3700
## #  with 58 more rows, and 2 more variables: sex <fct>, year <int>
## 
## [[3]]
## # A tibble: 119 x 8
##    species island bill_length_mm bill_depth_mm flipper_length_ body_mass_g
##    <fct>   <fct>           <dbl>         <dbl>            <int>       <int>
##  1 Gentoo  Biscoe           46.1          13.2              211        4500
##  2 Gentoo  Biscoe           50            16.3              230        5700
##  3 Gentoo  Biscoe           48.7          14.1              210        4450
##  4 Gentoo  Biscoe           50            15.2              218        5700
##  5 Gentoo  Biscoe           47.6          14.5              215        5400
##  6 Gentoo  Biscoe           46.5          13.5              210        4550
##  7 Gentoo  Biscoe           45.4          14.6              211        4800
##  8 Gentoo  Biscoe           46.7          15.3              219        5200
##  9 Gentoo  Biscoe           43.3          13.4              209        4400
## 10 Gentoo  Biscoe           46.8          15.4              215        5150
## #  with 109 more rows, and 2 more variables: sex <fct>, year <int>
…
